756 512 171
243 687 145
920 197 179
134 845 171
632 426 142
513 295 144
981 799 179
417 724 171
961 44 179
219 375 144
904 534 179
192 645 144
438 828 171
142 703 171
560 489 142
609 768 171
697 878 179
294 660 145
984 314 179
252 312 123
707 718 127
329 530 142
555 843 171
758 825 153
119 706 171
992 843 179
748 262 171
403 602 142
769 720 153
366 570 142
307 169 128
752 679 171
950 175 179
546 137 144
772 765 122
108 18 119
820 223 171
474 753 171
802 421 171
552 10 144
87 378 144
888 121 179
628 200 144
1000 585 179
991 355 179
34 951 179
612 442 142
553 292 144
663 718 171
657 562 145
758 99 171
149 82 122
739 98 171
531 738 171
327 510 144
131 830 171
234 358 144
341 977 179
321 496 144
493 858 171
998 777 179
525 816 171
321 390 144
640 264 144
985 791 179
617 594 132
891 156 179
348 204 144
886 122 179
563 348 142
740 168 171
573 465 142
720 184 171
660 309 145
719 518 171
799 378 171
220 98 125
944 498 179
330 573 142
736 11 171
309 682 145
108 596 144
411 870 171
378 159 144
948 581 179
625 674 145
999 843 179
352 971 179
471 183 144
979 777 179
512 952 179
512 267 144
996 718 179
289 567 144
472 511 142
682 820 171
361 137 144
774 490 171
908 982 174
799 19 171
674 981 179
809 498 171
429 797 171
887 113 179
36 314 131
603 296 144
305 417 144
596 141 144
239 332 144
828 94 171
532 875 179
671 76 145
721 769 153
888 345 179
199 197 120
536 723 171
793 700 171
876 527 179
400 858 171
80 651 145
873 553 179
229 331 144
390 935 179
619 507 137
940 917 174
798 496 171
559 392 142
666 321 145
140 290 128
816 359 171
616 355 142
137 902 179
98 197 125
971 617 179
848 71 171
852 303 171
346 376 126
688 374 145
951 329 179
722 865 153
665 109 145
113 546 144
859 439 171
586 429 142
460 191 144
387 92 144
674 284 145
893 176 179
994 694 179
908 247 179
572 140 144
618 990 179
812 148 171
366 303 144
43 610 144
227 733 171
486 974 179
319 133 131
794 861 148
579 642 132
370 183 144
678 762 171
836 267 171
108 816 171
22 956 179
267 500 144
109 982 179
726 289 171
656 992 179
553 158 144
527 690 145
735 497 171
864 124 171
42 137 122
238 447 144
549 209 144
732 960 179
116 874 179
225 706 171
388 965 179
367 717 171
272 562 144
110 454 144
776 30 171
539 680 145
481 732 171
442 317 144
862 925 179
711 936 179
214 15 125
696 651 145
390 82 144
227 930 179
178 636 144
177 782 171
355 284 144
730 211 171
737 704 140
909 816 179
44 583 144
973 383 179
135 666 145
159 944 179
762 712 140
952 709 179
496 673 145
272 289 105
700 153 145
946 91 179
856 608 171
1000 608 179
783 970 179
330 692 145
772 471 171
970 630 179
559 97 144
11 937 179
205 105 125
164 499 144
371 497 142
273 44 128
655 484 145
279 301 118
437 341 134
454 739 171
160 998 179
523 456 142
472 361 134
496 380 142
16 147 122
742 907 179
982 916 174
463 76 144
834 955 179
128 634 144
116 739 171
272 740 171
542 787 171
472 388 134
735 259 171
592 122 144
812 452 171
140 821 171
841 34 171
952 642 179
997 196 179
41 684 145
161 845 171
333 178 144
869 979 179
337 105 144
238 285 123
267 423 144
916 150 179
216 86 125
742 640 171
197 112 125
848 422 171
551 283 144
200 746 171
511 424 142
689 16 145
262 398 144
16 10 18
541 784 171
282 365 144
512 169 144
654 372 145
982 785 179
1000 220 179
800 896 179
243 250 110
343 985 179
556 263 144
91 146 122
871 870 179
255 527 144
258 198 128
21 676 145
787 190 171
568 136 144
840 100 171
974 581 179
911 236 179
752 489 171
780 383 171
551 73 144
920 696 179
227 259 128
923 777 179
998 721 179
936 562 179
931 852 179
239 774 171
548 618 137
137 109 122
598 966 179
991 631 179
470 145 144
49 98 119
908 10 179
437 758 171
898 439 179
728 676 171
469 773 171
758 380 171
882 738 179
